wokwi/tests/wokwi-logic.vcd
$version Generated by Wokwi.com $end
$date Tue, 24 Mar 2026 20:21:03 GMT $end
$timescale 1ns $end
$scope module logic $end
$var wire 1 ! D0 $end
$var wire 1 " D1 $end
$var wire 1 # D2 $end
$upscope $end
$enddefinitions $end
#0
1!
#0
0"
#0
0#
#515338183
0!
#1516051509
1#
#1516208763
0#
#2516051233
1#
#2516204267
0#
#2566771454
1!
#2567177837
0!
#2567233421
1!
#2567633067
0!
#2567721662
1!
#2568104446
0!
#2568195883
1!
#2568487875
0!
#2568539196
1!
#2568842812
0!
#2568862033
1!
#2569073537
0!
#2569107642
1!
#2569260737
0!
#3516051625
1#
#3516204659
0#
#3705903541
1"
#3706195545
0"
#4000092215
1!
#4000425790
0!
#4000497169
1!
#4000829332
0!
#4000868165
1!
#4001179386
0!
#4001272336
1!
#4001690619
0!
#4001783432
1!
#4002044219
0!
#4002098382
1!
#4002367565
0!
#4002401669
1!
#4002554765
0!
#4033434852
1!
#4033835631
0!
#4033902265
1!
#4034269398
0!
#4034326402
1!
#4034700186
0!
#4034775873
1!
#4035041740
0!
#4035149019
1!
#4035482548
0!
#4035533869
1!
#4035686965
0!
#4472886903
1"
#4473184648
0"
#4516054678
1#
#4516207711
0#
#5233410717
1!
#5233675638
0!
#5233771338
1!
#5234115488
0!
#5234186867
1!
#5234504905
0!
#5234559021
1!
#5234839984
0!
#5234877126
1!
#5235164601
0!
#5235271880
1!
#5235541017
0!
#5235575121
1!
#5235728217
0!
#5516052720
1#
#5516205753
0#
#6516057244
1#
#6516210278
0#
#6705891908
1"
#6706185333
0"
#7516058782
1#
#7516211815
0#
#7966996719
1!
#7967168452
0!
#7967202556
1!
#7967355652
0!
#7967696869
1!
#7967840660
0!
#7967951223
1!
#7968104319
0!
#7968181994
1!
#7968335090
0!
#7968471156
1!
#7968642890
0!
#7968676994
1!
#7968840540
0!
#7968848981
1!
#7969019448
0!
#7972441573
1"
#7972663948
0"
#8000093219
1!
#8000376732
0!
#8000448202
1!
#8000794732
0!
#8000840798
1!
#8001113561
0!
#8001166302
1!
#8001661977
0!
#8001756302
1!
#8001993752
0!
#8002086519
1!
#8002239615
0!
#8516052652
1#
#8516205686
0#
#8733348413
0!
#8733348413
0!
